%YAML 1.1
%TAG !u! tag:unity3d.com,2011:
--- !u!1045 &1
EditorBuildSettings:
  m_ObjectHideFlags: 0
  serializedVersion: 2
  m_Scenes:
  - enabled: 1
<<<<<<< HEAD
    path: Assets/Escenas/Esc_Grupo3.unity
=======
    path: Assets/Escenas/Esc_Grupo1.unity
>>>>>>> af6ba9e950ae67fa05673b8b59acedb0a837bc32
